{
  "cells_properties": {
    "deployEndpoint": "",
    "i18nPath": "locales/",
    "componentsPath": "./components/",
    "templatesPath": "./composerMocks/",
    "pages": [ "account-info", "account-movements", "account-transfer", "global-position", "login", "movement-detail", "movement-search", "new-transfer", "signup", "user-settings", "home", "another"],
    "pagesPath": "./pages/",
    "appId": "",
    "debug": true,
    "mocks": true,
    "coreCache": true,
    "routerLog": false,
    "cordovaScript" : "cordova.js",
    "prplLevel": 1,
    "initialBundle": ["login-page.html"],
    "transpile": true,
    "transpileExclude": [ "cells-rxjs", "webcomponentsjs", "moment","d3", "bgadp*" ]
  },
  "app_properties": {
    "techubank_api_url": "https://techubank-api-service:3443",
    "techubank_auth_server_url": "https://techubank-auth-server-service:4443"
  }
}

